\relax 
\citation{liu2009uwave}
\citation{liu2009uwave}
\@writefile{toc}{\contentsline {section}{\numberline {1}Introduction}{\thepage }}
\newlabel{introduction}{{1}{\thepage }}
\citation{liu2009uwave}
\citation{akl2010accelerometer}
\citation{mace2013naive}
\citation{wu2009gesture}
\citation{myers1981DTW}
\citation{liu2009uwave}
\@writefile{lof}{\contentsline {figure}{\numberline {1}{\ignorespaces Basic idea of uWave}}{\thepage }}
\newlabel{uWaveBasic}{{1}{\thepage }}
\@writefile{toc}{\contentsline {section}{\numberline {2}Related Works}{\thepage }}
\newlabel{relatedworks}{{2}{\thepage }}
\newlabel{2dplane}{{2(a)}{\thepage }}
\newlabel{sub@2dplane}{{(a)}{\thepage }}
\newlabel{dtwalgo}{{2(b)}{\thepage }}
\newlabel{sub@dtwalgo}{{(b)}{\thepage }}
\@writefile{lof}{\contentsline {figure}{\numberline {2}{\ignorespaces Dynamic Time Warping (DTW) algorithm}}{\thepage }}
\@writefile{lof}{\contentsline {subfigure}{\numberline{(a)}{\ignorespaces {Graphic illustration of the recursive algorithm}}}{\thepage }}
\@writefile{lof}{\contentsline {subfigure}{\numberline{(b)}{\ignorespaces {Algorithm for computing the DTW distance}}}{\thepage }}
\newlabel{dtw}{{2}{\thepage }}
\@writefile{toc}{\contentsline {section}{\numberline {3}Preliminaries}{\thepage }}
\newlabel{preliminaries}{{3}{\thepage }}
\citation{svm}
\citation{liu2009uwave}
\@writefile{lof}{\contentsline {figure}{\numberline {3}{\ignorespaces SVM Example}}{\thepage }}
\newlabel{svm-plane}{{3}{\thepage }}
\@writefile{toc}{\contentsline {subsection}{\numberline {3.1}Dynamic Time Warping}{\thepage }}
\@writefile{toc}{\contentsline {subsection}{\numberline {3.2}Support Vector Machine}{\thepage }}
\@writefile{toc}{\contentsline {section}{\numberline {4}System Design}{\thepage }}
\newlabel{systemmodel}{{4}{\thepage }}
\@writefile{toc}{\contentsline {subsection}{\numberline {4.1}uWave}{\thepage }}
\citation{wu2009gesture}
\citation{svmdtw08}
\citation{svmdtw10}
\@writefile{lof}{\contentsline {figure}{\numberline {4}{\ignorespaces Illustration of segments and frames for a gesture}}{\thepage }}
\newlabel{fdsvm}{{4}{\thepage }}
\@writefile{toc}{\contentsline {subsection}{\numberline {4.2}SVM with Linear Kernel}{\thepage }}
\@writefile{toc}{\contentsline {subsection}{\numberline {4.3}FDSVM}{\thepage }}
\@writefile{lot}{\contentsline {table}{\numberline {1}{\ignorespaces Non-linear Layering}}{\thepage }}
\newlabel{layering}{{1}{\thepage }}
\citation{svmdtw08}
\citation{gdtw}
\citation{liu2009uwave}
\@writefile{toc}{\contentsline {subsection}{\numberline {4.4}SVM with NDTW Kernel}{\thepage }}
\@writefile{toc}{\contentsline {subsection}{\numberline {4.5}SVM with GDTW Kernel}{\thepage }}
\@writefile{toc}{\contentsline {subsection}{\numberline {4.6}SVM with Preprocessing Data}{\thepage }}
\@writefile{toc}{\contentsline {section}{\numberline {5}Application}{\thepage }}
\newlabel{application}{{5}{\thepage }}
\@writefile{lof}{\contentsline {figure}{\numberline {5}{\ignorespaces User Interface}}{\thepage }}
\newlabel{ui}{{5}{\thepage }}
\@writefile{toc}{\contentsline {section}{\numberline {6}Evaluation}{\thepage }}
\newlabel{evaluation}{{6}{\thepage }}
\citation{liu2009uwave}
\citation{*}
\bibstyle{abbrv}
\bibdata{sigproc}
\bibcite{akl2010accelerometer}{1}
\bibcite{svmdtw08}{2}
\bibcite{liu2009uwave}{3}
\bibcite{mace2013naive}{4}
\bibcite{myers1981DTW}{5}
\bibcite{gdtw}{6}
\@writefile{lof}{\contentsline {figure}{\numberline {6}{\ignorespaces Gesture Vocabulary. The dot denotes the start and the arrow denotes the end}}{\thepage }}
\newlabel{gesture_vocabulary}{{6}{\thepage }}
\@writefile{toc}{\contentsline {subsection}{\numberline {6.1}Same User Different Days}{\thepage }}
\@writefile{lot}{\contentsline {table}{\numberline {2}{\ignorespaces Accuracy of different methods}}{\thepage }}
\newlabel{accuracy}{{2}{\thepage }}
\@writefile{toc}{\contentsline {subsection}{\numberline {6.2}Same User Same Day}{\thepage }}
\@writefile{lof}{\contentsline {figure}{\numberline {7}{\ignorespaces Accuracy vs. Overheads}}{\thepage }}
\newlabel{final}{{7}{\thepage }}
\@writefile{toc}{\contentsline {section}{\numberline {7}Conclusion}{\thepage }}
\newlabel{conclusion}{{7}{\thepage }}
\@writefile{toc}{\contentsline {section}{\numberline {8}References}{\thepage }}
\bibcite{svm}{7}
\bibcite{wu2009gesture}{8}
\bibcite{svmdtw10}{9}
\bibcite{zhong2009user}{10}
